@startuml Testes Unitários

frame "pyTest" as pytest_unit {

    node "Voucher API" as voucher_api #lightblue
}

note left of pytest_unit
    Executa testes unitários e funcionais
    integrados ao banco de dados
    (viabiliza análise de cobertura).
end note

note right of voucher_api
    API em teste, ex:
    - landingpage-api,
    - campanhas-api
end note

database "PostgreSQL-14\n(pg-server)" as pg_server #gray

voucher_api --> pg_server : "persiste dados"

@enduml